{
    "formacionMunicipios": [
        {"formacionID": 1573,
         "municipioID" : 47,
         "nombreMunicipio" : 'LA CHORRERA',
         "departamentoID": 13,
         "nombreDepartamento": 'AMAZONAS',
         "area" : 48},
        {"formacionID": 1573,
         "municipioID" : 48,
         "nombreMunicipio" : 'TARAPACÁ',
         "departamentoID": 13,
         "nombreDepartamento": 'AMAZONAS',
         "area" : 52},
        {"formacionID": 1554,
         "municipioID" : 48,
         "nombreMunicipio" : 'TARAPACÁ',
         "departamentoID": 13,
         "nombreDepartamento": 'AMAZONAS',
         "area" : 60},
        {"formacionID": 1554,
         "municipioID" : 49,
         "nombreMunicipio" : 'ABRIAQUI',
         "departamentoID": 13,
         "nombreDepartamento": 'AMAZONAS',
         "area" : 100},
        {"formacionID": 1572,
         "municipioID" : 51,
         "nombreMunicipio" : 'CARMEN DEL VIBORAL',
         "departamentoID": 13,
         "nombreDepartamento": 'AMAZONAS',
         "area" : 100},
        {"formacionID": 1572,
         "municipioID" : 57,
         "nombreMunicipio" : 'ARAUQUITA',
         "departamentoID": 13,
         "nombreDepartamento": 'AMAZONAS',
         "area" : 100},
        {"formacionID": 1655,
         "municipioID" : 57,
         "nombreMunicipio" : 'ARAUQUITA',
         "departamentoID": 13,
         "nombreDepartamento": 'AMAZONAS',
         "area" : 12},
        {"formacionID": 1655,
         "municipioID" : 49,
         "nombreMunicipio" : 'ABRIAQUI',
         "departamentoID": 13,
         "nombreDepartamento": 'AMAZONAS',
         "area" : 41},
        {"formacionID": 1655,
         "municipioID" : 50,
         "nombreMunicipio" : 'CACERES',
         "departamentoID": 13,
         "nombreDepartamento": 'AMAZONAS',
         "area" : 23},
        {"formacionID": 1655,
         "municipioID" : 51,
         "nombreMunicipio" : 'CARMEN DEL VIBORAL',
         "departamentoID": 13,
         "nombreDepartamento": 'AMAZONAS',
         "area" : 24},
        {"formacionID": 1563,
         "municipioID" : 52,
         "nombreMunicipio" : 'CISNEROS',
         "departamentoID": 13,
         "nombreDepartamento": 'AMAZONAS',
         "area" : 100},
        {"formacionID": 1563,
         "municipioID" : 53,
         "nombreMunicipio" : 'CONCORDIA',
         "departamentoID": 13,
         "nombreDepartamento": 'AMAZONAS',
         "area" : 100},
        {"formacionID": 1574,
         "municipioID" : 54,
         "nombreMunicipio" : 'GOMEZ PLATA',
         "departamentoID": 13,
         "nombreDepartamento": 'AMAZONAS',
         "area" : 100},
        {"formacionID": 1574,
         "municipioID" : 61,
         "nombreMunicipio" : 'CALDAS',
         "departamentoID": 13,
         "nombreDepartamento": 'AMAZONAS',
         "area" : 100},
        {"formacionID": 1574,
         "municipioID" : 60,
         "nombreMunicipio" : 'SIMITI',
         "departamentoID": 13,
         "nombreDepartamento": 'AMAZONAS',
         "area" : 100}
    ]
}