{
    "municipios": [
        {"municipioId": 47, "nombreMunicipio": "LA CHORRERA", "departamentoId": 13, "nombreDepartamento":"AMAZONAS"},
        {"municipioId": 48, "nombreMunicipio": "TARAPACÁ", "departamentoId": 13, "nombreDepartamento":"AMAZONAS"},
        {"municipioId": 49, "nombreMunicipio": "ABRIAQUI", "departamentoId": 14, "nombreDepartamento":"ANTIOQUIA"},
        {"municipioId": 50, "nombreMunicipio": "CACERES", "departamentoId": 14, "nombreDepartamento":"ANTIOQUIA"},
        {"municipioId": 51, "nombreMunicipio": "CARMEN DEL VIBORAL", "departamentoId": 14, "nombreDepartamento":"ANTIOQUIA"},
        {"municipioId": 52, "nombreMunicipio": "CISNEROS", "departamentoId": 14, "nombreDepartamento":"ANTIOQUIA"},
        {"municipioId": 53, "nombreMunicipio": "CONCORDIA", "departamentoId": 14, "nombreDepartamento":"ANTIOQUIA"},
        {"municipioId": 54, "nombreMunicipio": "GOMEZ PLATA", "departamentoId": 14, "nombreDepartamento":"ANTIOQUIA"},
        {"municipioId": 55, "nombreMunicipio": "MURINDO", "departamentoId": 14, "nombreDepartamento":"ANTIOQUIA"},
        {"municipioId": 56, "nombreMunicipio": "SAN RAFAEL", "departamentoId": 14, "nombreDepartamento":"ANTIOQUIA"},
        {"municipioId": 57, "nombreMunicipio": "ARAUQUITA", "departamentoId": 15, "nombreDepartamento":"ARAUCA"},
        {"municipioId": 58, "nombreMunicipio": "REGIDOR", "departamentoId": 18, "nombreDepartamento":"BOLIVAR"},
        {"municipioId": 59, "nombreMunicipio": "SAN PABLO", "departamentoId": 18, "nombreDepartamento":"BOLIVAR"},
        {"municipioId": 60, "nombreMunicipio": "SIMITI", "departamentoId": 18, "nombreDepartamento":"BOLIVAR"},
        {"municipioId": 61, "nombreMunicipio": "CALDAS", "departamentoId": 19, "nombreDepartamento":"BOYACA"}
    ]
}